{
	"$schema": "http://json.schemastore.org/template",
	"author": "Max Ovchinnikov",
	"classifications": [ "Maxov", "Nuget", "C#8" ],
	"identity": "Maxov.Service",
	"name": "Maxov nuget pkg template",
	"shortName": "maxov-nuget-pkg",
  	"sourceName": "Maxov.Nuget.Package",
	"tags": {
		"language": "C#",
		"type": "project"
	}
}